{
   "languageserver": {
    "golang": {
      "command": "gopls",
      "rootPatterns": ["go.mod"],
      "disableWorkspaceFolders": true,
      "filetypes": ["go"]
    }
  },
 "languageserver": {
    "ccls": {
      "command": "ccls",
      "filetypes": ["c", "cc", "cpp", "c++", "objc", "objcpp"],
      "rootPatterns": [".ccls", "compile_commands.json", ".git/", ".hg/"],
      "initializationOptions": {
         "cache": {
           "directory": "/tmp/ccls"
         }
       }
    }
  }
}
